{
  "kind": "collectionType",
  "collectionName": "contact_submissions",
  "info": {
    "name": "Form Submission",
    "description": ""
  },
  "options": {
    "increments": true,
    "timestamps": true,
    "draftAndPublish": false
  },
  "attributes": {
    "Name": {
      "type": "string"
    },
    "Email": {
      "type": "string"
    },
    "Subject": {
      "type": "string"
    },
    "Message": {
      "type": "text"
    },
    "Brand": {
      "type": "enumeration",
      "enum": [
        "ArmyNavy",
        "LiberTea",
        "PizzaTelefono",
        "RiceRocket",
        "WrightWings"
      ]
    },
    "Type": {
      "type": "enumeration",
      "enum": [
        "Contact",
        "Subscription",
        "Career"
      ]
    },
    "Phone": {
      "type": "string"
    },
    "Job": {
      "type": "string"
    },
    "Sex": {
      "type": "enumeration",
      "enum": [
        "Male",
        "Female"
      ]
    },
    "Upload": {
      "type": "string"
    }
  }
}
