{
  "collectionName": "components_order_order_items",
  "info": {
    "name": "OrderItem",
    "icon": "server",
    "description": ""
  },
  "options": {},
  "attributes": {
    "product": {
      "model": "product"
    },
    "ProductName": {
      "type": "string"
    },
    "Price": {
      "type": "decimal"
    },
    "Addons": {
      "type": "component",
      "repeatable": true,
      "component": "addons.addons"
    },
    "POSCode": {
      "type": "string"
    },
    "Quantity": {
      "type": "integer"
    },
    "Voucher": {
      "model": "voucher"
    }
  }
}
